order,file_path,thumbnail,width,height
1,http://54.87.156.3:3000/dcic_docs/Stamford_Box81/Stamford_AD_001.jpg,http://54.87.156.3:3000/dcic_docs/Stamford_Box81/thumb/Stamford_AD_001.jpg,900,1492
2,http://54.87.156.3:3000/dcic_docs/Stamford_Box81/Stamford_AD_002.jpg,http://54.87.156.3:3000/dcic_docs/Stamford_Box81/thumb/Stamford_AD_002.jpg,900,1487
3,http://54.87.156.3:3000/dcic_docs/Stamford_Box81/Stamford_AD_003.jpg,http://54.87.156.3:3000/dcic_docs/Stamford_Box81/thumb/Stamford_AD_003.jpg,900,1487
4,http://54.87.156.3:3000/dcic_docs/Stamford_Box81/Stamford_AD_004.jpg,http://54.87.156.3:3000/dcic_docs/Stamford_Box81/thumb/Stamford_AD_004.jpg,900,1489
5,http://54.87.156.3:3000/dcic_docs/Stamford_Box81/Stamford_AD_005.jpg,http://54.87.156.3:3000/dcic_docs/Stamford_Box81/thumb/Stamford_AD_005.jpg,900,1487
6,http://54.87.156.3:3000/dcic_docs/Stamford_Box81/Stamford_AD_006.jpg,http://54.87.156.3:3000/dcic_docs/Stamford_Box81/thumb/Stamford_AD_006.jpg,900,1487
7,http://54.87.156.3:3000/dcic_docs/Stamford_Box81/Stamford_AD_007.jpg,http://54.87.156.3:3000/dcic_docs/Stamford_Box81/thumb/Stamford_AD_007.jpg,900,1487
8,http://54.87.156.3:3000/dcic_docs/Stamford_Box81/Stamford_AD_008.jpg,http://54.87.156.3:3000/dcic_docs/Stamford_Box81/thumb/Stamford_AD_008.jpg,900,1487
9,http://54.87.156.3:3000/dcic_docs/Stamford_Box81/Stamford_AD_009.jpg,http://54.87.156.3:3000/dcic_docs/Stamford_Box81/thumb/Stamford_AD_009.jpg,900,1487
10,http://54.87.156.3:3000/dcic_docs/Stamford_Box81/Stamford_AD_010.jpg,http://54.87.156.3:3000/dcic_docs/Stamford_Box81/thumb/Stamford_AD_010.jpg,900,1487
11,http://54.87.156.3:3000/dcic_docs/Stamford_Box81/Stamford_AD_011.jpg,http://54.87.156.3:3000/dcic_docs/Stamford_Box81/thumb/Stamford_AD_011.jpg,900,1487
12,http://54.87.156.3:3000/dcic_docs/Stamford_Box81/Stamford_AD_012.jpg,http://54.87.156.3:3000/dcic_docs/Stamford_Box81/thumb/Stamford_AD_012.jpg,900,1487
13,http://54.87.156.3:3000/dcic_docs/Stamford_Box81/Stamford_AD_013.jpg,http://54.87.156.3:3000/dcic_docs/Stamford_Box81/thumb/Stamford_AD_013.jpg,900,1487
14,http://54.87.156.3:3000/dcic_docs/Stamford_Box81/Stamford_AD_014.jpg,http://54.87.156.3:3000/dcic_docs/Stamford_Box81/thumb/Stamford_AD_014.jpg,900,1487
15,http://54.87.156.3:3000/dcic_docs/Stamford_Box81/Stamford_AD_015.jpg,http://54.87.156.3:3000/dcic_docs/Stamford_Box81/thumb/Stamford_AD_015.jpg,900,1487
16,http://54.87.156.3:3000/dcic_docs/Stamford_Box81/Stamford_AD_016.jpg,http://54.87.156.3:3000/dcic_docs/Stamford_Box81/thumb/Stamford_AD_016.jpg,900,1487
17,http://54.87.156.3:3000/dcic_docs/Stamford_Box81/Stamford_AD_017.jpg,http://54.87.156.3:3000/dcic_docs/Stamford_Box81/thumb/Stamford_AD_017.jpg,900,1487
18,http://54.87.156.3:3000/dcic_docs/Stamford_Box81/Stamford_AD_018.jpg,http://54.87.156.3:3000/dcic_docs/Stamford_Box81/thumb/Stamford_AD_018.jpg,900,1487
19,http://54.87.156.3:3000/dcic_docs/Stamford_Box81/Stamford_AD_019.jpg,http://54.87.156.3:3000/dcic_docs/Stamford_Box81/thumb/Stamford_AD_019.jpg,900,1487
20,http://54.87.156.3:3000/dcic_docs/Stamford_Box81/Stamford_AD_020.jpg,http://54.87.156.3:3000/dcic_docs/Stamford_Box81/thumb/Stamford_AD_020.jpg,900,1487
21,http://54.87.156.3:3000/dcic_docs/Stamford_Box81/Stamford_AD_021.jpg,http://54.87.156.3:3000/dcic_docs/Stamford_Box81/thumb/Stamford_AD_021.jpg,900,1487
22,http://54.87.156.3:3000/dcic_docs/Stamford_Box81/Stamford_AD_022.jpg,http://54.87.156.3:3000/dcic_docs/Stamford_Box81/thumb/Stamford_AD_022.jpg,900,1490
23,http://54.87.156.3:3000/dcic_docs/Stamford_Box81/Stamford_AD_023.jpg,http://54.87.156.3:3000/dcic_docs/Stamford_Box81/thumb/Stamford_AD_023.jpg,900,1487
24,http://54.87.156.3:3000/dcic_docs/Stamford_Box81/Stamford_AD_024.jpg,http://54.87.156.3:3000/dcic_docs/Stamford_Box81/thumb/Stamford_AD_024.jpg,900,1487
25,http://54.87.156.3:3000/dcic_docs/Stamford_Box81/Stamford_AD_025.jpg,http://54.87.156.3:3000/dcic_docs/Stamford_Box81/thumb/Stamford_AD_025.jpg,900,1487
26,http://54.87.156.3:3000/dcic_docs/Stamford_Box81/Stamford_AD_026.jpg,http://54.87.156.3:3000/dcic_docs/Stamford_Box81/thumb/Stamford_AD_026.jpg,900,1487
27,http://54.87.156.3:3000/dcic_docs/Stamford_Box81/Stamford_AD_027.jpg,http://54.87.156.3:3000/dcic_docs/Stamford_Box81/thumb/Stamford_AD_027.jpg,900,1487
28,http://54.87.156.3:3000/dcic_docs/Stamford_Box81/Stamford_AD_028.jpg,http://54.87.156.3:3000/dcic_docs/Stamford_Box81/thumb/Stamford_AD_028.jpg,900,1487
29,http://54.87.156.3:3000/dcic_docs/Stamford_Box81/Stamford_AD_029.jpg,http://54.87.156.3:3000/dcic_docs/Stamford_Box81/thumb/Stamford_AD_029.jpg,900,1487
30,http://54.87.156.3:3000/dcic_docs/Stamford_Box81/Stamford_AD_030.jpg,http://54.87.156.3:3000/dcic_docs/Stamford_Box81/thumb/Stamford_AD_030.jpg,900,1491
31,http://54.87.156.3:3000/dcic_docs/Stamford_Box81/Stamford_AD_031.jpg,http://54.87.156.3:3000/dcic_docs/Stamford_Box81/thumb/Stamford_AD_031.jpg,900,1492
32,http://54.87.156.3:3000/dcic_docs/Stamford_Box81/Stamford_AD_032.jpg,http://54.87.156.3:3000/dcic_docs/Stamford_Box81/thumb/Stamford_AD_032.jpg,900,1500
